<svg width="23" height="23" viewBox="0 0 23 23" fill="none" xmlns="http://www.w3.org/2000/svg">
<path d="M20.6042 0H14.5254C13.3735 0 12.2906 0.4485 11.476 1.26307L0.817443 11.9217C0.290375 12.4487 0 13.1493 0 13.8977C0 14.6424 0.290375 15.3429 0.817443 15.87L7.13 22.1826C7.65707 22.7096 8.35763 23 9.10607 23C9.85069 23 10.5513 22.7096 11.0783 22.1826L21.7369 11.524C22.5515 10.7094 23 9.62644 23 8.47456V2.39582C23 1.07525 21.9247 0 20.6042 0ZM22.0417 8.47456C22.0417 9.37061 21.6929 10.213 21.0604 10.8455L10.4008 21.505C9.71175 22.1941 8.50331 22.1988 7.8085 21.505L1.495 15.1915C1.14906 14.8465 0.958318 14.3865 0.958318 13.8939C0.958318 13.4052 1.14901 12.9452 1.495 12.5992L12.1536 1.94063C12.788 1.30718 13.6294 0.958318 14.5254 0.958318H20.6041C21.3967 0.958318 22.0416 1.60326 22.0416 2.39582V8.47456H22.0417Z" fill="#304455"/>
<path d="M17.7293 2.875C16.4087 2.875 15.3335 3.95025 15.3335 5.27082C15.3335 6.59139 16.4087 7.66664 17.7293 7.66664C19.0499 7.66664 20.1251 6.59143 20.1251 5.27082C20.1251 3.95025 19.0499 2.875 17.7293 2.875ZM17.7293 6.70832C16.9368 6.70832 16.2918 6.06338 16.2918 5.27082C16.2918 4.47826 16.9368 3.83332 17.7293 3.83332C18.5219 3.83332 19.1668 4.47826 19.1668 5.27082C19.1668 6.06338 18.5218 6.70832 17.7293 6.70832Z" fill="#304455"/>
</svg>
