<svg width="30" height="23" viewBox="0 0 30 23" fill="none" xmlns="http://www.w3.org/2000/svg">
<path d="M15.0029 0.431587C7.45941 -1.62285 0 3.92444 0 11.4998C0 19.0898 7.473 24.6188 15.0029 22.568C22.5568 24.6271 30 19.06 30 11.4998C30 3.93125 22.5475 -1.62486 15.0029 0.431587ZM1.76471 11.4998C1.76471 6.05653 6.36118 1.63755 11.9795 1.72556C8.61718 3.75362 6.37276 7.37631 6.37276 11.4998C6.37276 15.6234 8.61718 19.2461 11.9795 21.2741C6.36129 21.3621 1.76471 16.9433 1.76471 11.4998ZM18.1864 21.2757C12.6454 21.2757 8.13753 16.8902 8.13753 11.4998C8.13753 6.10946 12.6454 1.72402 18.1864 1.72402C23.7274 1.72402 28.2353 6.10946 28.2353 11.4998C28.2353 16.8902 23.7274 21.2757 18.1864 21.2757Z" fill="#E7CC41"/>
</svg>
