<svg width="12" height="12" viewBox="0 0 12 12" fill="none" xmlns="http://www.w3.org/2000/svg">
<path d="M7.09939 6.00979L11.772 1.33709C12.076 1.03315 12.076 0.541721 11.772 0.237781C11.468 -0.0661583 10.9766 -0.0661583 10.6726 0.237781L5.99994 4.91048L1.32737 0.237781C1.02329 -0.0661583 0.532002 -0.0661583 0.228062 0.237781C-0.0760207 0.541721 -0.0760207 1.03315 0.228062 1.33709L4.90063 6.00979L0.228062 10.6825C-0.0760207 10.9864 -0.0760207 11.4779 0.228062 11.7818C0.379534 11.9334 0.578697 12.0096 0.777717 12.0096C0.976738 12.0096 1.17576 11.9334 1.32737 11.7818L5.99994 7.1091L10.6726 11.7818C10.8243 11.9334 11.0233 12.0096 11.2223 12.0096C11.4213 12.0096 11.6203 11.9334 11.772 11.7818C12.076 11.4779 12.076 10.9864 11.772 10.6825L7.09939 6.00979Z" fill="#304455"/>
</svg>
