<svg width="10" height="7" viewBox="0 0 10 7" fill="none" xmlns="http://www.w3.org/2000/svg">
<path d="M5.49505 0.225599L9.79476 4.95543C10.0684 5.25631 10.0684 5.74412 9.79476 6.04485C9.52134 6.3456 9.0779 6.3456 8.80451 6.04485L4.99993 1.85968L1.19548 6.04473C0.921954 6.34548 0.478552 6.34548 0.205141 6.04473C-0.0683804 5.74398 -0.0683804 5.25619 0.205141 4.95531L4.50491 0.225477C4.64169 0.0751004 4.82075 -2.86102e-06 4.9999 -2.86102e-06C5.17915 -2.86102e-06 5.35834 0.0752468 5.49505 0.225599Z" fill="#268598"/>
</svg>
