<svg width="23" height="23" viewBox="0 0 23 23" fill="none" xmlns="http://www.w3.org/2000/svg">
<path d="M11.5 0C5.1589 0 0 5.1589 0 11.5C0 14.2772 0.989767 16.8276 2.63503 18.8171C2.63925 18.8228 2.63963 18.8301 2.64423 18.8355C3.83218 20.268 5.32412 21.3662 6.98663 22.0758C7.0058 22.0838 7.02458 22.0926 7.04375 22.1007C7.1783 22.1574 7.31438 22.2099 7.45085 22.2613C7.50452 22.2816 7.55818 22.3023 7.61262 22.3219C7.7303 22.364 7.84875 22.4039 7.96797 22.4422C8.04425 22.4668 8.12053 22.4909 8.19758 22.5139C8.303 22.5454 8.4088 22.5756 8.51537 22.6044C8.6089 22.6297 8.7032 22.6531 8.7975 22.6757C8.89295 22.6987 8.98878 22.7217 9.085 22.742C9.19233 22.765 9.30082 22.7853 9.40968 22.8053C9.49708 22.8214 9.5841 22.8382 9.67227 22.8524C9.79302 22.872 9.91453 22.8873 10.0364 22.903C10.115 22.913 10.1932 22.9245 10.2722 22.9329C10.4102 22.9475 10.5493 22.9578 10.6889 22.9674C10.7536 22.972 10.8181 22.9789 10.8832 22.9824C11.0868 22.9939 11.2926 23 11.5 23C11.7074 23 11.9132 22.9939 12.1175 22.9831C12.1827 22.9797 12.2471 22.9728 12.3119 22.9682C12.4514 22.9582 12.5906 22.9482 12.7286 22.9337C12.8076 22.9252 12.8857 22.9137 12.9643 22.9038C13.0862 22.8881 13.2078 22.8727 13.3285 22.8532C13.4163 22.839 13.5037 22.8221 13.5911 22.806C13.6996 22.7861 13.808 22.7658 13.9158 22.7428C14.012 22.7221 14.1074 22.6995 14.2033 22.6765C14.2976 22.6535 14.3919 22.6301 14.4854 22.6052C14.592 22.5768 14.6978 22.5461 14.8032 22.5147C14.8802 22.4917 14.9565 22.4676 15.0328 22.443C15.152 22.4047 15.2705 22.3648 15.3882 22.3227C15.4422 22.3031 15.4959 22.2824 15.5499 22.2621C15.6868 22.2107 15.8225 22.1578 15.957 22.1015C15.9762 22.0934 15.995 22.0846 16.0141 22.0765C17.6763 21.367 19.1686 20.2687 20.3565 18.8362C20.3611 18.8309 20.3615 18.8232 20.3657 18.8178C22.0102 16.8276 23 14.2772 23 11.5C23 5.1589 17.8411 0 11.5 0ZM16.1602 21.1677C16.1544 21.1703 16.1491 21.1734 16.1433 21.1761C16.0065 21.242 15.8673 21.3041 15.727 21.3647C15.6952 21.3781 15.6638 21.3919 15.6319 21.4053C15.5093 21.4567 15.3851 21.5054 15.2601 21.5521C15.208 21.5717 15.1559 21.5909 15.1033 21.6093C14.9925 21.6488 14.8814 21.6867 14.7691 21.7227C14.6993 21.745 14.6291 21.766 14.559 21.7867C14.4593 21.8166 14.3593 21.8454 14.2581 21.8722C14.173 21.8948 14.0871 21.9155 14.0013 21.9359C13.9112 21.9573 13.8215 21.9792 13.7306 21.9984C13.6313 22.0194 13.5313 22.0374 13.4316 22.0555C13.3507 22.0704 13.2702 22.0861 13.1886 22.0992C13.0763 22.1168 12.9628 22.131 12.8497 22.1452C12.778 22.1544 12.7067 22.1651 12.6343 22.1728C12.5051 22.1866 12.3748 22.1954 12.2448 22.2046C12.1869 22.2084 12.1294 22.2149 12.0708 22.218C11.881 22.228 11.6909 22.2333 11.5 22.2333C11.3091 22.2333 11.119 22.228 10.9296 22.218C10.8713 22.2149 10.8138 22.2088 10.7556 22.2046C10.6252 22.1958 10.4953 22.1866 10.3661 22.1728C10.2936 22.1651 10.2223 22.1544 10.1507 22.1452C10.0376 22.131 9.92412 22.1168 9.8118 22.0992C9.73015 22.0861 9.64965 22.0704 9.56877 22.0555C9.46872 22.0374 9.36867 22.0191 9.26977 21.9984C9.17892 21.9792 9.08883 21.9573 8.99913 21.9359C8.91327 21.9152 8.8274 21.8948 8.7423 21.8722C8.64148 21.8454 8.54105 21.8163 8.44138 21.7867C8.37123 21.766 8.30108 21.745 8.23132 21.7227C8.119 21.6867 8.00745 21.6488 7.89705 21.6093C7.84453 21.5905 7.7924 21.5713 7.74027 21.5521C7.6153 21.5054 7.4911 21.4567 7.36843 21.4053C7.33662 21.3923 7.30557 21.3785 7.27375 21.3651C7.13345 21.3049 6.9943 21.2424 6.85707 21.1765C6.85132 21.1738 6.84595 21.1711 6.8402 21.1681C5.50275 20.521 4.32132 19.6025 3.3626 18.487C4.10358 15.7585 6.20118 13.5589 8.89985 12.6837C8.95313 12.7163 9.00872 12.7454 9.06353 12.7761C9.09573 12.7941 9.12755 12.8133 9.16013 12.8306C9.27437 12.8911 9.39013 12.9478 9.50858 12.9988C9.59943 13.0387 9.69335 13.0724 9.78688 13.1069C9.80528 13.1135 9.82368 13.1207 9.84208 13.1272C10.3619 13.3112 10.9181 13.4167 11.5 13.4167C12.0819 13.4167 12.6381 13.3112 13.1575 13.1272C13.1759 13.1207 13.1943 13.1135 13.2127 13.1069C13.3063 13.0724 13.4002 13.0387 13.491 12.9988C13.6095 12.9478 13.7253 12.8911 13.8395 12.8306C13.8721 12.8129 13.9039 12.7941 13.9361 12.7761C13.9909 12.7454 14.0469 12.7163 14.1005 12.6834C16.7992 13.5589 18.8964 15.7585 19.6378 18.4866C18.6791 19.6017 17.4976 20.5202 16.1602 21.1677ZM7.28333 8.43333C7.28333 6.10842 9.17508 4.21667 11.5 4.21667C13.8249 4.21667 15.7167 6.10842 15.7167 8.43333C15.7167 9.91223 14.9496 11.2136 13.7939 11.9665C13.6428 12.0646 13.4857 12.1524 13.3243 12.2291C13.3051 12.2383 13.2863 12.2479 13.2672 12.2567C12.157 12.7615 10.843 12.7615 9.73283 12.2567C9.71367 12.2479 9.6945 12.2383 9.67572 12.2291C9.51395 12.1524 9.35717 12.0646 9.20613 11.9665C8.05038 11.2136 7.28333 9.91223 7.28333 8.43333ZM20.2128 17.7572C19.3438 15.1911 17.3612 13.1173 14.8281 12.1321C15.8412 11.2194 16.4833 9.9015 16.4833 8.43333C16.4833 5.6856 14.2477 3.45 11.5 3.45C8.75227 3.45 6.51667 5.6856 6.51667 8.43333C6.51667 9.9015 7.15875 11.2194 8.17228 12.1321C5.63922 13.1177 3.65662 15.1911 2.7876 17.7572C1.51762 15.9942 0.766667 13.8337 0.766667 11.5C0.766667 5.58172 5.58172 0.766667 11.5 0.766667C17.4183 0.766667 22.2333 5.58172 22.2333 11.5C22.2333 13.8337 21.4824 15.9942 20.2128 17.7572Z" fill="#ffffff"/>
</svg>
