<svg width="14" height="18" viewBox="0 0 14 18" fill="none" xmlns="http://www.w3.org/2000/svg">
<path d="M4.125 3.75V8.375H12.225V11.625H4.125V18H0.0750001V0.499999H13.3V3.75H4.125Z" fill="#BFDBE1"/>
</svg>
